\relax 
\providecommand\hyper@newdestlabel[2]{}
\catcode `"\active 
\catcode `<\active 
\catcode `>\active 
\@nameuse{es@quoting}
\catcode `'\active 
\providecommand\HyperFirstAtBeginDocument{\AtBeginDocument}
\HyperFirstAtBeginDocument{\ifx\hyper@anchor\@undefined
\global\let\oldcontentsline\contentsline
\gdef\contentsline#1#2#3#4{\oldcontentsline{#1}{#2}{#3}}
\global\let\oldnewlabel\newlabel
\gdef\newlabel#1#2{\newlabelxx{#1}#2}
\gdef\newlabelxx#1#2#3#4#5#6{\oldnewlabel{#1}{{#2}{#3}}}
\AtEndDocument{\ifx\hyper@anchor\@undefined
\let\contentsline\oldcontentsline
\let\newlabel\oldnewlabel
\fi}
\fi}
\global\let\hyper@last\relax 
\gdef\HyperFirstAtBeginDocument#1{#1}
\providecommand\HyField@AuxAddToFields[1]{}
\providecommand\HyField@AuxAddToCoFields[2]{}
\providecommand \oddpage@label [2]{}
\babel@aux{spanish}{}
\@writefile{toc}{\contentsline {chapter}{\numberline {1}Introducci\IeC {\'o}n}{1}{chapter.1}}
\@writefile{lof}{\addvspace {10\p@ }}
\@writefile{lot}{\addvspace {10\p@ }}
\@writefile{toc}{\contentsline {section}{\numberline {1.1}Objetivo}{1}{section.1.1}}
\@writefile{toc}{\contentsline {section}{\numberline {1.2}Materiales e instrumental necesarios}{1}{section.1.2}}
\@writefile{toc}{\contentsline {section}{\numberline {1.3}Introducci\IeC {\'o}n}{1}{section.1.3}}
\@writefile{toc}{\contentsline {chapter}{\numberline {2}Desarrollo}{2}{chapter.2}}
\@writefile{lof}{\addvspace {10\p@ }}
\@writefile{lot}{\addvspace {10\p@ }}
\@writefile{toc}{\contentsline {section}{\numberline {2.1}Consignas}{2}{section.2.1}}
\@writefile{lof}{\contentsline {figure}{\numberline {2.1}{\ignorespaces Circuito esquem\IeC {\'a}tico del amplificador de dos etapa.\relax }}{2}{figure.caption.2}}
\providecommand*\caption@xref[2]{\@setref\relax\@undefined{#1}}
\newlabel{fig:circuito}{{2.1}{2}{Circuito esquemático del amplificador de dos etapa.\relax }{figure.caption.2}{}}
\@writefile{toc}{\contentsline {section}{\numberline {2.2}Resoluci\IeC {\'o}n}{3}{section.2.2}}
\@writefile{toc}{\contentsline {subsection}{Determinaci\IeC {\'o}n de la impedancia de salida del amplificador en lazo abierto y cerrado ($Z_o$ y $Z_{of}$ respectivamente)}{3}{section*.3}}
\@writefile{lof}{\contentsline {figure}{\numberline {2.2}{\ignorespaces Circuito para obtenci\IeC {\'o}n de impedancia de salida.\relax }}{3}{figure.caption.4}}
\newlabel{fig:impsal}{{2.2}{3}{Circuito para obtención de impedancia de salida.\relax }{figure.caption.4}{}}
\@writefile{toc}{\contentsline {subsubsection}{Resultados}{3}{section*.5}}
\@writefile{toc}{\contentsline {subsection}{Determinaci\IeC {\'o}n de la impedancia de entrada del amplificador en lazo abierto y cerrado ($Z_i$ y $Z_{if}$ respectivamente)}{4}{section*.6}}
\@writefile{lof}{\contentsline {figure}{\numberline {2.3}{\ignorespaces Circuito para obtenci\IeC {\'o}n de impedancia de salida.\relax }}{4}{figure.caption.7}}
\newlabel{fig:impent}{{2.3}{4}{Circuito para obtención de impedancia de salida.\relax }{figure.caption.7}{}}
\@writefile{toc}{\contentsline {subsubsection}{Resultados}{4}{section*.8}}
\@writefile{toc}{\contentsline {subsection}{Determinaci\IeC {\'o}n de las ganancias de tensi\IeC {\'o}n en lazo abierto y cerrado}{5}{section*.9}}
\@writefile{toc}{\contentsline {subsection}{Determinaci\IeC {\'o}n de la desensibilidad}{6}{section*.10}}
\@writefile{toc}{\contentsline {subsection}{Respuesta en frecuencia}{7}{section*.11}}
\@writefile{lof}{\contentsline {figure}{\numberline {2.4}{\ignorespaces Respuesta en frecuencia en lazo abierto\relax }}{7}{figure.caption.12}}
\newlabel{fig:frec-lazo-abierto}{{2.4}{7}{Respuesta en frecuencia en lazo abierto\relax }{figure.caption.12}{}}
\@writefile{lof}{\contentsline {figure}{\numberline {2.5}{\ignorespaces Barrido en frecuencia en lazo cerrado\relax }}{8}{figure.caption.13}}
\newlabel{fig:frec-lazo-cerrado}{{2.5}{8}{Barrido en frecuencia en lazo cerrado\relax }{figure.caption.13}{}}
\@writefile{toc}{\contentsline {subsection}{Simulaciones}{8}{section*.14}}
\@writefile{lof}{\contentsline {figure}{\numberline {2.6}{\ignorespaces Simulaci\IeC {\'o}n de se\IeC {\~n}al de salida y entrada con y sin realimentaci\IeC {\'o}n\relax }}{8}{figure.caption.15}}
\newlabel{fig:ganancia}{{2.6}{8}{Simulación de señal de salida y entrada con y sin realimentación\relax }{figure.caption.15}{}}
\@writefile{lof}{\contentsline {figure}{\numberline {2.7}{\ignorespaces Simulaci\IeC {\'o}n de barrido en frecuencia en lazo abierto\relax }}{9}{figure.caption.16}}
\newlabel{fig:sim-frec-lazo-abierto}{{2.7}{9}{Simulación de barrido en frecuencia en lazo abierto\relax }{figure.caption.16}{}}
\@writefile{lof}{\contentsline {figure}{\numberline {2.8}{\ignorespaces Simulaci\IeC {\'o}n de barrido en frecuencia en lazo cerrado\relax }}{9}{figure.caption.17}}
\newlabel{fig:sim-frec-lazo-cerrado}{{2.8}{9}{Simulación de barrido en frecuencia en lazo cerrado\relax }{figure.caption.17}{}}
\@writefile{toc}{\contentsline {chapter}{\numberline {3}Conclusi\IeC {\'o}n}{10}{chapter.3}}
\@writefile{lof}{\addvspace {10\p@ }}
\@writefile{lot}{\addvspace {10\p@ }}
