<Qucs Schematic 0.0.19>
<Properties>
  <View=-480,-120,1801,984,0.826447,0,23>
  <Grid=10,10,1>
  <DataSet=esquematico.dat>
  <DataDisplay=esquematico.dpl>
  <OpenDisplay=1>
  <Script=esquematico.m>
  <RunScript=0>
  <showFrame=0>
  <FrameText0=Title>
  <FrameText1=Drawn By:>
  <FrameText2=Date:>
  <FrameText3=Revision:>
</Properties>
<Symbol>
</Symbol>
<Components>
  <R Rb1 1 240 160 15 -26 0 1 "820k Ohm" 1 "26.85" 0 "0.0" 0 "0.0" 0 "26.85" 0 "US" 0>
  <R Rb2 1 240 430 15 -26 0 1 "560k Ohm" 1 "26.85" 0 "0.0" 0 "0.0" 0 "26.85" 0 "US" 0>
  <R Rc1 1 430 160 15 -26 0 1 "18k Ohm" 1 "26.85" 0 "0.0" 0 "0.0" 0 "26.85" 0 "US" 0>
  <R Re1 1 430 430 15 -26 0 1 "130 Ohm" 1 "26.85" 0 "0.0" 0 "0.0" 0 "26.85" 0 "US" 0>
  <R Re2 1 430 570 15 -26 0 1 "12k Ohm" 1 "26.85" 0 "0.0" 0 "0.0" 0 "26.85" 0 "US" 0>
  <R Rb4 1 680 420 15 -26 0 1 "24k Ohm" 1 "26.85" 0 "0.0" 0 "0.0" 0 "26.85" 0 "US" 0>
  <R Rb3 1 680 150 15 -26 0 1 "110k Ohm" 1 "26.85" 0 "0.0" 0 "0.0" 0 "26.85" 0 "US" 0>
  <R Rc2 1 830 150 15 -26 0 1 "2k Ohm" 1 "26.85" 0 "0.0" 0 "0.0" 0 "26.85" 0 "US" 0>
  <R Re3 1 830 420 15 -26 0 1 "240 Ohm" 1 "26.85" 0 "0.0" 0 "0.0" 0 "26.85" 0 "US" 0>
  <R Re4 1 830 560 15 -26 0 1 "200 Ohm" 1 "26.85" 0 "0.0" 0 "0.0" 0 "26.85" 0 "US" 0>
  <R Rf 1 730 700 -26 15 0 0 "1600 Ohm" 1 "26.85" 0 "0.0" 0 "0.0" 0 "26.85" 0 "US" 0>
  <C Ca3 1 880 700 -26 -55 0 2 "10 uF" 1 "" 0 "neutral" 0>
  <C Co 1 1010 240 -26 -55 0 2 "10 uF" 1 "" 0 "neutral" 0>
  <C Ce2 1 980 550 17 -26 0 1 "100 uF" 1 "" 0 "neutral" 0>
  <C Ce1 1 570 510 17 -26 0 1 "100 uF" 1 "" 0 "neutral" 0>
  <C Ca1 1 140 300 -26 17 0 0 "10 uF" 1 "" 0 "neutral" 0>
  <C Ca2 1 580 210 -26 -55 0 2 "10 uF" 1 "" 0 "neutral" 0>
  <Vdc V1 1 -160 320 18 -26 0 1 "22 V" 1>
  <VProbe Salida 1 1050 80 28 -31 0 0>
  <GND * 1 -150 650 0 0 0 0>
  <GND * 1 1060 130 0 0 0 0>
  <.TR TR1 1 -180 750 0 77 0 0 "lin" 1 "0" 1 "10 ms" 1 "1001" 1 "Trapezoidal" 0 "2" 0 "1 ns" 0 "1e-16" 0 "150" 0 "0.001" 0 "1 pA" 0 "1 uV" 0 "26.85" 0 "1e-3" 0 "1e-6" 0 "1" 0 "CroutLU" 0 "no" 0 "yes" 0 "0" 0>
  <VProbe Entrada 1 50 210 28 -31 0 0>
  <GND * 1 60 260 0 0 0 0>
  <Switch S1 1 580 380 -26 11 0 0 "off" 1 "5 ms" 1 "0" 0 "1e12" 0 "26.85" 0 "1e-6" 0 "spline" 0>
  <_BJT T1 1 430 280 8 -26 0 0 "npn" 1 "7.5e-11" 1 "1.426" 1 "1.5" 0 "0.427" 0 "4.272" 0 "80.49" 1 "1.0092" 0 "2.5e-10" 0 "2.739" 0 "2.5e-10" 0 "1.912" 0 "350" 1 "62.79" 0 "0.1" 0 "0.1" 0 "3.011" 0 "0.579" 0 "0.1" 0 "7.5e-12" 0 "0.586" 0 "0.333" 0 "4e-12" 0 "0.95" 0 "0.344" 0 "0.8" 0 "0" 0 "0.75" 0 "0.5" 0 "0.8" 0 "5.5e-10" 0 "4.458" 0 "26.03" 0 "0.487" 0 "1e-7" 0 "26.85" 0 "0.0" 0 "1.0" 0 "1.0" 0 "0.0" 0 "1.0" 0 "1.0" 0 "0.0" 0 "0.1" 0 "2.254" 0 "1.05" 0 "26.85" 0 "1.0" 0>
  <_BJT T2 1 830 280 8 -26 0 0 "npn" 1 "7.5e-11" 1 "1.426" 1 "1.5" 0 "0.427" 0 "4.272" 0 "80.49" 1 "1.0092" 0 "2.5e-10" 0 "2.739" 0 "2.5e-10" 0 "1.912" 0 "350" 1 "62.79" 0 "0.1" 0 "0.1" 0 "3.011" 0 "0.579" 0 "0.1" 0 "7.5e-12" 0 "0.586" 0 "0.333" 0 "4e-12" 0 "0.95" 0 "0.344" 0 "0.8" 0 "0" 0 "0.75" 0 "0.5" 0 "0.8" 0 "5.5e-10" 0 "4.458" 0 "26.03" 0 "0.487" 0 "1e-7" 0 "26.85" 0 "0.0" 0 "1.0" 0 "1.0" 0 "0.0" 0 "1.0" 0 "1.0" 0 "0.0" 0 "0.1" 0 "2.254" 0 "1.05" 0 "26.85" 0 "1.0" 0>
  <Vac V2 1 -10 400 18 -26 0 1 "32 mV" 1 "1.5 kHz" 1 "0" 0 "0" 0>
</Components>
<Wires>
  <170 280 170 300 "" 0 0 0 "">
  <170 280 240 280 "" 0 0 0 "">
  <240 280 400 280 "" 0 0 0 "">
  <240 190 240 280 "" 0 0 0 "">
  <240 280 240 400 "" 0 0 0 "">
  <430 190 430 210 "" 0 0 0 "">
  <430 310 430 380 "" 0 0 0 "">
  <430 460 430 480 "" 0 0 0 "">
  <430 480 430 540 "" 0 0 0 "">
  <430 480 570 480 "" 0 0 0 "">
  <680 280 680 390 "" 0 0 0 "">
  <680 280 800 280 "" 0 0 0 "">
  <680 180 680 210 "" 0 0 0 "">
  <430 210 430 250 "" 0 0 0 "">
  <430 210 550 210 "" 0 0 0 "">
  <680 210 680 280 "" 0 0 0 "">
  <610 210 680 210 "" 0 0 0 "">
  <760 700 850 700 "" 0 0 0 "">
  <830 450 830 490 "" 0 0 0 "">
  <830 310 830 390 "" 0 0 0 "">
  <980 490 980 520 "" 0 0 0 "">
  <830 490 830 530 "" 0 0 0 "">
  <830 490 980 490 "" 0 0 0 "">
  <830 180 830 240 "" 0 0 0 "">
  <830 240 830 250 "" 0 0 0 "">
  <830 240 920 240 "" 0 0 0 "">
  <680 120 830 120 "" 0 0 0 "">
  <430 120 680 120 "" 0 0 0 "">
  <430 120 430 130 "" 0 0 0 "">
  <240 120 430 120 "" 0 0 0 "">
  <240 120 240 130 "" 0 0 0 "">
  <240 460 240 600 "" 0 0 0 "">
  <240 600 430 600 "" 0 0 0 "">
  <430 600 570 600 "" 0 0 0 "">
  <830 590 830 600 "" 0 0 0 "">
  <830 600 980 600 "" 0 0 0 "">
  <980 580 980 600 "" 0 0 0 "">
  <680 600 830 600 "" 0 0 0 "">
  <680 450 680 600 "" 0 0 0 "">
  <910 700 1190 700 "" 0 0 0 "">
  <1190 180 1190 700 "" 0 0 0 "">
  <920 180 1190 180 "" 0 0 0 "">
  <920 240 980 240 "" 0 0 0 "">
  <920 180 920 240 "" 0 0 0 "">
  <-160 120 -160 290 "" 0 0 0 "">
  <-160 120 240 120 "" 0 0 0 "">
  <-160 350 -160 600 "" 0 0 0 "">
  <-160 600 -150 600 "" 0 0 0 "">
  <-10 300 -10 370 "" 0 0 0 "">
  <-10 300 40 300 "" 0 0 0 "">
  <-10 600 240 600 "" 0 0 0 "">
  <-10 430 -10 600 "" 0 0 0 "">
  <570 600 680 600 "" 0 0 0 "">
  <570 540 570 600 "" 0 0 0 "">
  <-150 600 -10 600 "" 0 0 0 "">
  <-150 600 -150 650 "" 0 0 0 "">
  <1060 100 1060 130 "" 0 0 0 "">
  <1040 100 1040 240 "" 0 0 0 "">
  <60 230 60 260 "" 0 0 0 "">
  <40 300 110 300 "" 0 0 0 "">
  <40 230 40 300 "" 0 0 0 "">
  <430 380 430 400 "" 0 0 0 "">
  <430 380 550 380 "" 0 0 0 "">
  <610 380 610 700 "" 0 0 0 "">
  <610 700 700 700 "" 0 0 0 "">
</Wires>
<Diagrams>
</Diagrams>
<Paintings>
</Paintings>
