\relax 
\providecommand\hyper@newdestlabel[2]{}
\catcode `"\active 
\catcode `<\active 
\catcode `>\active 
\@nameuse{es@quoting}
\catcode `'\active 
\providecommand\HyperFirstAtBeginDocument{\AtBeginDocument}
\HyperFirstAtBeginDocument{\ifx\hyper@anchor\@undefined
\global\let\oldcontentsline\contentsline
\gdef\contentsline#1#2#3#4{\oldcontentsline{#1}{#2}{#3}}
\global\let\oldnewlabel\newlabel
\gdef\newlabel#1#2{\newlabelxx{#1}#2}
\gdef\newlabelxx#1#2#3#4#5#6{\oldnewlabel{#1}{{#2}{#3}}}
\AtEndDocument{\ifx\hyper@anchor\@undefined
\let\contentsline\oldcontentsline
\let\newlabel\oldnewlabel
\fi}
\fi}
\global\let\hyper@last\relax 
\gdef\HyperFirstAtBeginDocument#1{#1}
\providecommand\HyField@AuxAddToFields[1]{}
\providecommand\HyField@AuxAddToCoFields[2]{}
\providecommand \oddpage@label [2]{}
\babel@aux{spanish}{}
\@writefile{toc}{\contentsline {chapter}{\numberline {1}Introducci\IeC {\'o}n}{1}{chapter.1}}
\@writefile{lof}{\addvspace {10\p@ }}
\@writefile{lot}{\addvspace {10\p@ }}
\@writefile{toc}{\contentsline {section}{\numberline {1.1}Condiciones de dise\IeC {\~n}o}{1}{section.1.1}}
\@writefile{toc}{\contentsline {section}{\numberline {1.2}Mediciones realizadas}{1}{section.1.2}}
\@writefile{toc}{\contentsline {section}{\numberline {1.3}Instrumental utilizado}{1}{section.1.3}}
\@writefile{toc}{\contentsline {chapter}{\numberline {2}Desarrollo}{2}{chapter.2}}
\@writefile{lof}{\addvspace {10\p@ }}
\@writefile{lot}{\addvspace {10\p@ }}
\@writefile{toc}{\contentsline {section}{\numberline {2.1}Circuito amplificador de instrumentaci\IeC {\'o}n}{2}{section.2.1}}
\@writefile{lof}{\contentsline {figure}{\numberline {2.1}{\ignorespaces Circuito amplificador de instrumentacion\relax }}{2}{figure.caption.2}}
\providecommand*\caption@xref[2]{\@setref\relax\@undefined{#1}}
\newlabel{fig:circuitoAmp}{{2.1}{2}{Circuito amplificador de instrumentacion\relax }{figure.caption.2}{}}
\@writefile{toc}{\contentsline {section}{\numberline {2.2}Mediciones}{3}{section.2.2}}
\@writefile{toc}{\contentsline {subsection}{Relaci\IeC {\'o}n de rechazo al modo com\IeC {\'u}n y Ganancias}{3}{section*.3}}
\@writefile{lof}{\contentsline {figure}{\numberline {2.2}{\ignorespaces Circuito en modo comun\relax }}{3}{figure.caption.4}}
\newlabel{fig:circuitoModoComun}{{2.2}{3}{Circuito en modo comun\relax }{figure.caption.4}{}}
\@writefile{lof}{\contentsline {figure}{\numberline {2.3}{\ignorespaces Circuito en modo diferencial\relax }}{3}{figure.caption.5}}
\newlabel{fig:circuitoModoDif}{{2.3}{3}{Circuito en modo diferencial\relax }{figure.caption.5}{}}
\@writefile{toc}{\contentsline {subsubsection}{Resultados}{4}{section*.6}}
\@writefile{toc}{\contentsline {subsection}{Ancho de Banda}{4}{section*.7}}
\@writefile{toc}{\contentsline {chapter}{\numberline {3}Conclusion}{5}{chapter.3}}
\@writefile{lof}{\addvspace {10\p@ }}
\@writefile{lot}{\addvspace {10\p@ }}
