<Qucs Schematic 0.0.19>
<Properties>
  <View=108,79,1422,762,1.20548,0,0>
  <Grid=10,10,1>
  <DataSet=integrador_invesor_mas-inversor_ideal.dat>
  <DataDisplay=integrador_invesor_mas-inversor_ideal.dpl>
  <OpenDisplay=1>
  <Script=integrador_invesor_mas-inversor_ideal.m>
  <RunScript=0>
  <showFrame=0>
  <FrameText0=Title>
  <FrameText1=Drawn By:>
  <FrameText2=Date:>
  <FrameText3=Revision:>
</Properties>
<Symbol>
  <Line -40 70 20 0 #000080 2 1>
  <Line -30 80 0 -10 #000080 2 1>
  <.PortSym -30 80 3 0>
  <.PortSym -30 -40 2 0>
  <Line -40 -30 20 0 #000080 2 1>
  <Line -30 -30 0 -10 #000080 2 1>
  <Line 10 40 0 -40 #000080 2 1>
  <Line 10 20 10 0 #000000 0 1>
  <.PortSym 20 20 1 180>
  <Line -70 40 0 -40 #000080 2 1>
  <Line -80 30 10 0 #000000 0 1>
  <.PortSym -80 30 4 0>
  <Text -50 50 12 #000000 0 "GND">
  <Text -30 10 12 #000000 0 "OUT">
  <Text -40 -30 12 #000000 0 "IN">
  <.ID 14 -42 INTEGRA>
  <Line -70 0 0 -30 #000000 0 1>
  <Line -40 -30 -30 0 #000000 0 1>
  <Line -20 -30 30 0 #000000 0 1>
  <Line 10 0 0 -30 #000000 0 1>
  <Line 10 40 0 30 #000000 0 1>
  <Line -20 70 30 0 #000000 0 1>
  <Line -40 70 -30 0 #000000 0 1>
  <Line -70 40 0 30 #000000 0 1>
  <Text -60 20 12 #000000 0 "5V">
</Symbol>
<Components>
  <GND * 1 550 480 0 0 0 0>
  <OpAmp OP1 1 640 370 -26 -80 1 0 "1e6" 1 "15 V" 0>
  <GND * 1 1070 370 0 0 0 0>
  <C C1 1 720 220 -26 17 0 0 "10 nF" 1 "" 0 "neutral" 0>
  <R R5 1 930 280 -26 15 0 0 "10 kOhm" 1 "26.85" 0 "0.0" 0 "0.0" 0 "26.85" 0 "US" 0>
  <R R11 1 620 220 -26 15 0 0 "390 Ohm" 1 "26.85" 0 "0.0" 0 "0.0" 0 "26.85" 0 "US" 0>
  <R R2 1 670 130 -26 15 0 0 "43k Ohm" 1 "26.85" 0 "0.0" 0 "0.0" 0 "26.85" 0 "US" 0>
  <R R1 1 480 350 -26 15 0 0 "10k Ohm" 1 "26.85" 0 "0.0" 0 "0.0" 0 "26.85" 0 "US" 0>
  <R R6 1 1130 160 -26 15 0 0 "33 kOhm" 1 "26.85" 0 "0.0" 0 "0.0" 0 "26.85" 0 "US" 0>
  <R R10 1 980 200 -26 15 0 0 "82 kOhm" 1 "26.85" 0 "0.0" 0 "0.0" 0 "26.85" 0 "US" 0>
  <Port OUT 1 1270 310 4 -50 0 2 "1" 1 "analog" 0>
  <Port IN 1 350 350 -23 12 0 0 "2" 1 "analog" 0>
  <Port Ref5V 1 930 200 -23 -50 1 0 "4" 1 "analog" 0>
  <Port MASA 1 500 460 -23 12 0 0 "3" 1 "analog" 0>
  <OpAmp OP2 1 1130 310 -26 -80 1 0 "1e6" 1 "15 V" 0>
</Components>
<Wires>
  <510 350 560 350 "" 0 0 0 "">
  <560 350 610 350 "" 0 0 0 "">
  <680 370 780 370 "" 0 0 0 "">
  <780 130 780 220 "" 0 0 0 "">
  <700 130 780 130 "" 0 0 0 "">
  <560 130 560 220 "" 0 0 0 "">
  <560 130 640 130 "" 0 0 0 "">
  <780 220 780 370 "" 0 0 0 "">
  <560 220 560 350 "" 0 0 0 "">
  <350 350 450 350 "entrada" 400 320 10 "">
  <550 390 610 390 "" 0 0 0 "">
  <550 390 550 460 "" 0 0 0 "">
  <1180 310 1270 310 "salida" 1240 280 25 "">
  <1180 160 1180 310 "" 0 0 0 "">
  <1160 160 1180 160 "" 0 0 0 "">
  <1080 160 1080 280 "" 0 0 0 "">
  <1080 160 1100 160 "" 0 0 0 "">
  <1170 310 1180 310 "" 0 0 0 "">
  <1080 290 1100 290 "" 0 0 0 "">
  <780 370 870 370 "" 0 0 0 "">
  <870 280 900 280 "" 0 0 0 "">
  <870 280 870 370 "" 0 0 0 "">
  <1080 280 1080 290 "" 0 0 0 "">
  <960 280 1010 280 "" 0 0 0 "">
  <930 200 950 200 "" 0 0 0 "">
  <1010 280 1080 280 "" 0 0 0 "">
  <1010 200 1010 280 "" 0 0 0 "">
  <1070 330 1070 370 "" 0 0 0 "">
  <1070 330 1100 330 "" 0 0 0 "">
  <750 220 780 220 "" 0 0 0 "">
  <560 220 590 220 "" 0 0 0 "">
  <650 220 690 220 "" 0 0 0 "">
  <550 460 550 480 "" 0 0 0 "">
  <500 460 550 460 "" 0 0 0 "">
</Wires>
<Diagrams>
</Diagrams>
<Paintings>
</Paintings>
