<Qucs Schematic 0.0.19>
<Properties>
  <View=-52,0,1168,800,1,0,0>
  <Grid=10,10,1>
  <DataSet=sumador_no-inversor_ideal.dat>
  <DataDisplay=sumador_no-inversor_ideal.dpl>
  <OpenDisplay=1>
  <Script=sumador_no-inversor_ideal.m>
  <RunScript=0>
  <showFrame=0>
  <FrameText0=Title>
  <FrameText1=Drawn By:>
  <FrameText2=Date:>
  <FrameText3=Revision:>
</Properties>
<Symbol>
  <.ID -20 14 AdderInicial>
  <Line -20 -10 40 0 #000080 2 1>
  <Line 20 -10 0 20 #000080 2 1>
  <Line -20 10 40 0 #000080 2 1>
  <Line -20 -10 0 20 #000080 2 1>
  <Line -30 0 10 0 #000080 2 1>
</Symbol>
<Components>
  <OpAmp OP1 1 590 340 -26 -80 1 0 "1e6" 1 "15 V" 0>
  <Vdc V1 1 340 370 -26 18 0 0 "5 V" 1>
  <Vrect V2 1 340 450 -26 18 0 0 "2.5 V" 1 "0.116 ms" 1 "0.116 ms" 1 "1 ns" 0 "1 ns" 0 "0 ns" 0>
  <GND * 1 290 380 0 0 0 0>
  <GND * 1 370 290 0 0 0 0>
  <R R5 1 770 390 -112 -26 0 3 "100k Ohm" 1 "26.85" 0 "0.0" 0 "0.0" 0 "26.85" 0 "US" 0>
  <GND * 1 770 440 0 0 0 0>
  <GND * 1 190 460 0 0 0 0>
  <Vdc V3 1 250 450 -26 -56 0 2 "1.25 V" 1>
  <R R2 1 440 450 -26 15 0 0 "18 kOhm" 1 "26.85" 0 "0.0" 0 "0.0" 0 "26.85" 0 "US" 0>
  <R Rf 1 600 240 -26 -53 0 2 "18k Ohm" 1 "26.85" 0 "0.0" 0 "0.0" 0 "26.85" 0 "US" 0>
  <R Rg 1 420 270 -26 -53 0 2 "390k Ohm" 1 "26.85" 0 "0.0" 0 "0.0" 0 "26.85" 0 "US" 0>
  <R R1 1 440 370 -26 15 0 0 "390k Ohm" 1 "26.85" 0 "0.0" 0 "0.0" 0 "26.85" 0 "US" 0>
  <.TR TR1 1 700 600 0 67 0 0 "lin" 1 "0" 1 "1 ms" 1 "1001" 1 "Trapezoidal" 0 "2" 0 "1 ns" 0 "1e-16" 0 "150" 0 "0.001" 0 "1 pA" 0 "1 uV" 0 "26.85" 0 "1e-3" 0 "1e-6" 0 "1" 0 "CroutLU" 0 "no" 0 "yes" 0 "0" 0>
</Components>
<Wires>
  <500 320 560 320 "" 0 0 0 "">
  <500 240 500 320 "" 0 0 0 "">
  <500 240 570 240 "" 0 0 0 "">
  <630 340 670 340 "" 0 0 0 "">
  <670 340 770 340 "outAdder" 700 290 54 "">
  <670 240 670 340 "" 0 0 0 "">
  <630 240 670 240 "" 0 0 0 "">
  <450 320 500 320 "" 0 0 0 "">
  <450 270 450 320 "" 0 0 0 "">
  <560 360 560 370 "" 0 0 0 "">
  <470 370 560 370 "" 0 0 0 "">
  <560 370 560 450 "" 0 0 0 "">
  <470 450 560 450 "" 0 0 0 "">
  <370 450 410 450 "inAdder" 410 420 8 "">
  <370 370 410 370 "" 0 0 0 "">
  <290 370 290 380 "" 0 0 0 "">
  <290 370 310 370 "" 0 0 0 "">
  <370 270 370 290 "" 0 0 0 "">
  <370 270 390 270 "" 0 0 0 "">
  <770 420 770 440 "" 0 0 0 "">
  <770 340 770 360 "" 0 0 0 "">
  <190 450 220 450 "" 0 0 0 "">
  <190 450 190 460 "" 0 0 0 "">
  <280 450 310 450 "" 0 0 0 "">
</Wires>
<Diagrams>
</Diagrams>
<Paintings>
  <Text 180 600 12 #000000 0 "V_{out} = [(R_f / R_g) + 1] [ (R_2 / [R_1 + R_2] ) V_1 +(R_1 / [R_1 + R_2] ) V_2   ]">
</Paintings>
