<Qucs Schematic 0.0.19>
<Properties>
  <View=0,-20,1478,800,1,0,0>
  <Grid=10,10,1>
  <DataSet=primer_derivador_inversor_con-inversor.dat>
  <DataDisplay=primer_derivador_inversor_con-inversor.dpl>
  <OpenDisplay=1>
  <Script=primer_derivador_inversor_con-inversor.m>
  <RunScript=0>
  <showFrame=0>
  <FrameText0=Title>
  <FrameText1=Drawn By:>
  <FrameText2=Date:>
  <FrameText3=Revision:>
</Properties>
<Symbol>
  <.ID 160 -46 SUB>
  <Rectangle -50 -50 100 120 #000000 0 1 #c0c0c0 1 0>
  <.PortSym 0 80 2 90>
  <.PortSym 60 10 1 180>
  <.PortSym 0 -60 3 270>
  <.PortSym -60 30 4 0>
  <Text -10 50 12 #000000 0 "GND">
  <Text 10 0 12 #000000 0 "OUT">
  <Text -10 -50 12 #000000 0 "IN">
  <Text -40 20 12 #000000 0 "5V">
  <Line -60 30 10 0 #000000 0 1>
  <Line 0 -60 0 10 #000000 0 1>
  <Line 60 10 -10 0 #000000 0 1>
  <Line 0 80 0 -10 #000000 0 1>
</Symbol>
<Components>
  <OpAmp OP1 1 730 360 -26 -80 1 0 "1e6" 1 "15 V" 0>
  <Port OUT1 1 1380 390 4 -50 0 2 "1" 1 "analog" 0>
  <GND * 1 680 440 0 0 0 0>
  <Port MASA 1 630 420 -23 12 0 0 "2" 1 "analog" 0>
  <Port IN 1 400 340 -23 12 0 0 "3" 1 "analog" 0>
  <OpAmp OP2 1 1240 390 -26 -80 1 0 "1e6" 1 "15 V" 0>
  <R R1 1 480 340 -26 15 0 0 "5k Ohm" 1 "26.85" 0 "0.0" 0 "0.0" 0 "26.85" 0 "US" 0>
  <C C1 1 610 340 -26 17 0 0 "220 pF" 1 "" 0 "neutral" 0>
  <R R4 1 1240 240 -26 15 0 0 "15 kOhm" 1 "26.85" 0 "0.0" 0 "0.0" 0 "26.85" 0 "US" 0>
  <GND * 1 1190 570 0 0 0 0>
  <R R3 1 900 360 -26 15 0 0 "18 kOhm" 1 "26.85" 0 "0.0" 0 "0.0" 0 "26.85" 0 "US" 0>
  <R R6 1 1190 520 15 -26 0 1 "15 kOhm" 1 "26.85" 0 "0.0" 0 "0.0" 0 "26.85" 0 "US" 0>
  <Port Ref5V1 1 1070 430 -23 -50 1 0 "4" 1 "analog" 0>
  <R R5 1 1120 430 -26 15 0 0 "75 kOhm" 1 "26.85" 0 "0.0" 0 "0.0" 0 "26.85" 0 "US" 0>
  <R R2 1 740 120 -26 15 0 0 "220k Ohm" 1 "26.85" 0 "0.0" 0 "0.0" 0 "26.85" 0 "US" 0>
  <C C2 1 740 210 -26 17 0 0 "15 pF" 1 "" 0 "neutral" 0>
</Components>
<Wires>
  <510 340 580 340 "" 0 0 0 "">
  <640 340 660 340 "" 0 0 0 "">
  <660 210 710 210 "" 0 0 0 "">
  <660 340 700 340 "" 0 0 0 "">
  <660 210 660 340 "" 0 0 0 "">
  <660 120 660 210 "" 0 0 0 "">
  <660 120 710 120 "" 0 0 0 "">
  <770 360 820 360 "" 0 0 0 "">
  <770 210 820 210 "" 0 0 0 "">
  <820 210 820 360 "" 0 0 0 "">
  <820 120 820 210 "" 0 0 0 "">
  <770 120 820 120 "" 0 0 0 "">
  <1290 390 1380 390 "salida" 1350 360 25 "">
  <1290 240 1290 390 "" 0 0 0 "">
  <1270 240 1290 240 "" 0 0 0 "">
  <1190 240 1210 240 "" 0 0 0 "">
  <1280 390 1290 390 "" 0 0 0 "">
  <1190 370 1210 370 "" 0 0 0 "">
  <1190 240 1190 360 "" 0 0 0 "">
  <1190 360 1190 370 "" 0 0 0 "">
  <680 380 700 380 "" 0 0 0 "">
  <680 380 680 420 "" 0 0 0 "">
  <680 420 680 440 "" 0 0 0 "">
  <630 420 680 420 "" 0 0 0 "">
  <400 340 450 340 "" 0 0 0 "">
  <930 360 1190 360 "" 0 0 0 "">
  <820 360 870 360 "" 0 0 0 "">
  <1190 410 1210 410 "" 0 0 0 "">
  <1190 430 1190 490 "" 0 0 0 "">
  <1190 410 1190 430 "" 0 0 0 "">
  <1190 550 1190 570 "" 0 0 0 "">
  <1150 430 1190 430 "" 0 0 0 "">
  <1070 430 1090 430 "" 0 0 0 "">
</Wires>
<Diagrams>
</Diagrams>
<Paintings>
</Paintings>
