<Qucs Schematic 0.0.19>
<Properties>
  <View=0,0,1608,929,1,0,0>
  <Grid=10,10,1>
  <DataSet=segundo_derivador_inversor_con-inversor.dat>
  <DataDisplay=segundo_derivador_inversor_con-inversor.dpl>
  <OpenDisplay=1>
  <Script=segundo_derivador_inversor_con-inversor.m>
  <RunScript=0>
  <showFrame=0>
  <FrameText0=Title>
  <FrameText1=Drawn By:>
  <FrameText2=Date:>
  <FrameText3=Revision:>
</Properties>
<Symbol>
  <Rectangle -50 -70 100 120 #000000 0 1 #c0c0c0 1 0>
  <Text -10 30 12 #000000 0 "GND">
  <Text 10 -20 12 #000000 0 "OUT">
  <Text -10 -70 12 #000000 0 "IN">
  <Line 0 -80 0 10 #000000 0 1>
  <Line 60 -10 -10 0 #000000 0 1>
  <Line 0 60 0 -10 #000000 0 1>
  <.PortSym 0 60 2 90>
  <.PortSym 60 -10 1 180>
  <.ID 80 -100 SUB>
  <.PortSym 0 -80 3 270>
</Symbol>
<Components>
  <OpAmp OP1 1 610 440 -26 -80 1 0 "1e6" 1 "15 V" 0>
  <GND * 1 560 520 0 0 0 0>
  <Port MASA1 1 510 500 -23 12 0 0 "2" 1 "analog" 0>
  <Port IN1 1 280 420 -23 12 0 0 "3" 1 "analog" 0>
  <R R1 1 360 420 -26 15 0 0 "5k Ohm" 1 "26.85" 0 "0.0" 0 "0.0" 0 "26.85" 0 "US" 0>
  <C C1 1 490 420 -26 17 0 0 "220 pF" 1 "" 0 "neutral" 0>
  <R R2 1 620 200 -26 15 0 0 "220k Ohm" 1 "26.85" 0 "0.0" 0 "0.0" 0 "26.85" 0 "US" 0>
  <C C2 1 620 290 -26 17 0 0 "15 pF" 1 "" 0 "neutral" 0>
  <Port OUT1 1 1510 470 4 -50 0 2 "1" 1 "analog" 0>
  <OpAmp OP2 1 1370 470 -26 -80 1 0 "1e6" 1 "15 V" 0>
  <OpAmp OP3 1 860 520 -26 -80 1 0 "1e6" 1 "15 V" 0>
  <GND * 1 820 580 0 0 0 0>
  <Diode D1 1 1060 490 15 -26 0 1 "1e-15 A" 1 "1" 1 "10 fF" 1 "0.5" 0 "0.7 V" 0 "0.5" 0 "0.0 fF" 0 "0.0" 0 "2.0" 0 "0.1 Ohm" 1 "0.0 ps" 0 "0" 0 "0.0" 0 "1.0" 0 "1.0" 0 "0" 0 "1 mA" 0 "26.85" 0 "3.0" 0 "1.11" 0 "0.0" 0 "0.0" 0 "0.0" 0 "0.0" 0 "0.0" 0 "0.0" 0 "26.85" 0 "1.0" 0 "normal" 0>
  <Diode D2 1 1060 600 15 -26 0 1 "1e-15 A" 1 "1" 1 "10 fF" 1 "0.5" 0 "0.7 V" 0 "0.5" 0 "0.0 fF" 0 "0.0" 0 "2.0" 0 "0.1 Ohm" 0 "0.0 ps" 0 "0" 0 "0.0" 0 "1.0" 0 "1.0" 0 "0" 0 "1 mA" 0 "26.85" 0 "3.0" 0 "1.11" 0 "0.0" 0 "0.0" 0 "0.0" 0 "0.0" 0 "0.0" 0 "0.0" 0 "26.85" 0 "1.0" 0 "normal" 0>
  <R R6 1 960 410 -26 15 0 0 "1 kOhm" 1 "26.85" 0 "0.0" 0 "0.0" 0 "26.85" 0 "US" 0>
  <R R7 1 980 650 -26 15 0 0 "1 kOhm" 1 "26.85" 0 "0.0" 0 "0.0" 0 "26.85" 0 "US" 0>
  <R R5 1 760 500 -26 15 0 0 "15 kOhm" 1 "26.85" 0 "0.0" 0 "0.0" 0 "26.85" 0 "US" 0>
  <R R4 1 1250 440 -26 15 0 0 "1 kOhm" 1 "26.85" 0 "0.0" 0 "0.0" 0 "26.85" 0 "US" 0>
  <R R3 1 1370 320 -26 15 0 0 "1 kOhm" 1 "26.85" 0 "0.0" 0 "0.0" 0 "26.85" 0 "US" 0>
</Components>
<Wires>
  <390 420 460 420 "" 0 0 0 "">
  <540 290 590 290 "" 0 0 0 "">
  <520 420 540 420 "" 0 0 0 "">
  <540 420 580 420 "" 0 0 0 "">
  <540 290 540 420 "" 0 0 0 "">
  <540 200 540 290 "" 0 0 0 "">
  <540 200 590 200 "" 0 0 0 "">
  <650 440 700 440 "" 0 0 0 "">
  <650 290 700 290 "" 0 0 0 "">
  <700 290 700 440 "" 0 0 0 "">
  <700 200 700 290 "" 0 0 0 "">
  <650 200 700 200 "" 0 0 0 "">
  <560 460 580 460 "" 0 0 0 "">
  <560 460 560 500 "" 0 0 0 "">
  <560 500 560 520 "" 0 0 0 "">
  <510 500 560 500 "" 0 0 0 "">
  <280 420 330 420 "" 0 0 0 "">
  <1420 470 1510 470 "salida" 1480 440 25 "">
  <1420 320 1420 470 "" 0 0 0 "">
  <1400 320 1420 320 "" 0 0 0 "">
  <1320 320 1340 320 "" 0 0 0 "">
  <1410 470 1420 470 "" 0 0 0 "">
  <1320 450 1340 450 "" 0 0 0 "">
  <1320 490 1340 490 "" 0 0 0 "">
  <1320 490 1320 650 "" 0 0 0 "">
  <1320 320 1320 440 "" 0 0 0 "">
  <1320 440 1320 450 "" 0 0 0 "">
  <1280 440 1320 440 "" 0 0 0 "">
  <1060 650 1320 650 "" 0 0 0 "">
  <990 410 990 440 "" 0 0 0 "">
  <990 440 1060 440 "" 0 0 0 "">
  <810 410 920 410 "" 0 0 0 "">
  <810 410 810 500 "" 0 0 0 "">
  <790 500 810 500 "" 0 0 0 "">
  <810 500 830 500 "" 0 0 0 "">
  <700 500 730 500 "" 0 0 0 "">
  <700 440 700 500 "" 0 0 0 "">
  <920 650 950 650 "" 0 0 0 "">
  <920 410 930 410 "" 0 0 0 "">
  <920 410 920 650 "" 0 0 0 "">
  <820 540 820 580 "" 0 0 0 "">
  <820 540 830 540 "" 0 0 0 "">
  <1060 630 1060 650 "" 0 0 0 "">
  <1010 650 1060 650 "" 0 0 0 "">
  <900 520 900 550 "" 0 0 0 "">
  <1060 550 1060 570 "" 0 0 0 "">
  <900 550 1060 550 "" 0 0 0 "">
  <1060 440 1220 440 "" 0 0 0 "">
  <1060 440 1060 460 "" 0 0 0 "">
  <1060 520 1060 550 "" 0 0 0 "">
</Wires>
<Diagrams>
</Diagrams>
<Paintings>
</Paintings>
