<Qucs Schematic 0.0.19>
<Properties>
  <View=178,127,1216,782,1.41832,0,0>
  <Grid=10,10,1>
  <DataSet=sumador_inversor_ideal.dat>
  <DataDisplay=sumador_inversor_ideal.dpl>
  <OpenDisplay=1>
  <Script=sumador_inversor_ideal.m>
  <RunScript=0>
  <showFrame=0>
  <FrameText0=Title>
  <FrameText1=Drawn By:>
  <FrameText2=Date:>
  <FrameText3=Revision:>
</Properties>
<Symbol>
  <Text 70 10 12 #000000 0 "5V">
  <Text 90 30 12 #000000 0 "GND">
  <Text 120 -20 12 #000000 0 "OUT">
  <Rectangle 60 -70 100 130 #000000 0 1 #c0c0c0 1 0>
  <Text 100 -60 12 #000000 0 "IN">
  <.PortSym 110 -90 3 270>
  <.PortSym 180 -10 1 180>
  <.PortSym 100 80 4 90>
  <.ID 170 -100 SUB>
  <.PortSym 40 20 2 0>
  <Line 40 20 20 0 #000000 0 1>
  <Line 110 -90 0 20 #000000 0 1>
  <Line 180 -10 -20 0 #000000 0 1>
  <Line 100 80 0 -20 #000000 0 1>
</Symbol>
<Components>
  <OpAmp OP1 1 710 320 -26 -80 1 0 "1e6" 1 "15 V" 0>
  <GND * 1 660 360 0 0 0 0>
  <OpAmp OP2 1 1000 340 -26 -80 1 0 "1e6" 1 "15 V" 0>
  <GND * 1 950 380 0 0 0 0>
  <R Rf2 1 860 320 -26 -53 0 2 "10k Ohm" 1 "26.85" 0 "0.0" 0 "0.0" 0 "26.85" 0 "US" 0>
  <R Rf3 1 990 240 -26 -53 0 2 "10k Ohm" 1 "26.85" 0 "0.0" 0 "0.0" 0 "26.85" 0 "US" 0>
  <Port OUT 1 1110 340 12 -23 1 3 "1" 1 "analog" 0>
  <R R2 1 480 340 -26 15 0 0 "15 kOhm" 1 "26.85" 0 "0.0" 0 "0.0" 0 "26.85" 0 "US" 0>
  <R Rf1 1 720 220 -26 -53 0 2 "15k Ohm" 1 "26.85" 0 "0.0" 0 "0.0" 0 "26.85" 0 "US" 0>
  <R R3 1 480 260 -26 15 0 0 "300k Ohm" 1 "26.85" 0 "0.0" 0 "0.0" 0 "26.85" 0 "US" 0>
  <Port Ref5V 1 410 260 -23 12 0 0 "2" 1 "analog" 0>
  <Port IN 1 410 340 -23 12 0 0 "3" 1 "analog" 0>
  <Port MASA 1 900 370 -23 12 0 0 "4" 1 "analog" 0>
</Components>
<Wires>
  <620 300 680 300 "" 0 0 0 "">
  <620 220 620 300 "" 0 0 0 "">
  <620 220 690 220 "" 0 0 0 "">
  <750 320 790 320 "" 0 0 0 "">
  <790 220 790 320 "" 0 0 0 "">
  <750 220 790 220 "" 0 0 0 "">
  <510 260 600 260 "" 0 0 0 "">
  <410 340 450 340 "entrada" 450 310 10 "">
  <410 260 450 260 "" 0 0 0 "">
  <600 300 620 300 "" 0 0 0 "">
  <600 260 600 300 "" 0 0 0 "">
  <510 340 600 340 "" 0 0 0 "">
  <600 300 600 340 "" 0 0 0 "">
  <660 340 660 360 "" 0 0 0 "">
  <660 340 680 340 "" 0 0 0 "">
  <950 360 950 370 "" 0 0 0 "">
  <950 360 970 360 "" 0 0 0 "">
  <790 320 830 320 "" 0 0 0 "">
  <930 320 970 320 "" 0 0 0 "">
  <1040 340 1110 340 "salida" 1060 270 11 "">
  <890 320 930 320 "" 0 0 0 "">
  <930 240 930 320 "" 0 0 0 "">
  <930 240 960 240 "" 0 0 0 "">
  <1040 240 1040 340 "" 0 0 0 "">
  <1020 240 1040 240 "" 0 0 0 "">
  <950 370 950 380 "" 0 0 0 "">
  <900 370 950 370 "" 0 0 0 "">
</Wires>
<Diagrams>
</Diagrams>
<Paintings>
  <Text 300 580 12 #000000 0 "V_{out} = [R_f ] [ (V_1 / R_1) + (V_2 / R_2)   ]">
</Paintings>
