\relax 
\providecommand\hyper@newdestlabel[2]{}
\catcode `"\active 
\catcode `<\active 
\catcode `>\active 
\@nameuse{es@quoting}
\catcode `'\active 
\providecommand\HyperFirstAtBeginDocument{\AtBeginDocument}
\HyperFirstAtBeginDocument{\ifx\hyper@anchor\@undefined
\global\let\oldcontentsline\contentsline
\gdef\contentsline#1#2#3#4{\oldcontentsline{#1}{#2}{#3}}
\global\let\oldnewlabel\newlabel
\gdef\newlabel#1#2{\newlabelxx{#1}#2}
\gdef\newlabelxx#1#2#3#4#5#6{\oldnewlabel{#1}{{#2}{#3}}}
\AtEndDocument{\ifx\hyper@anchor\@undefined
\let\contentsline\oldcontentsline
\let\newlabel\oldnewlabel
\fi}
\fi}
\global\let\hyper@last\relax 
\gdef\HyperFirstAtBeginDocument#1{#1}
\providecommand\HyField@AuxAddToFields[1]{}
\providecommand\HyField@AuxAddToCoFields[2]{}
\providecommand \oddpage@label [2]{}
\babel@aux{spanish}{}
\@writefile{toc}{\contentsline {chapter}{\numberline {1}Introducci\IeC {\'o}n}{1}{chapter.1}}
\@writefile{lof}{\addvspace {10\p@ }}
\@writefile{lot}{\addvspace {10\p@ }}
\@writefile{toc}{\contentsline {section}{\numberline {1.1}Objetivo}{1}{section.1.1}}
\@writefile{toc}{\contentsline {section}{\numberline {1.2}Pautas}{2}{section.1.2}}
\@writefile{toc}{\contentsline {chapter}{\numberline {2}Desarrollo}{3}{chapter.2}}
\@writefile{lof}{\addvspace {10\p@ }}
\@writefile{lot}{\addvspace {10\p@ }}
\@writefile{toc}{\contentsline {section}{\numberline {2.1}Diagrama en bloques}{3}{section.2.1}}
\@writefile{toc}{\contentsline {section}{\numberline {2.2}Referencia de Tension}{4}{section.2.2}}
\@writefile{toc}{\contentsline {section}{\numberline {2.3}Primera Etapa (Desplazador)}{7}{section.2.3}}
\@writefile{toc}{\contentsline {subsection}{Circuito}{7}{section*.2}}
\@writefile{toc}{\contentsline {subsection}{C\IeC {\'a}lculos}{7}{section*.3}}
\@writefile{toc}{\contentsline {subsection}{Impedancia de Entrada}{8}{section*.4}}
\@writefile{toc}{\contentsline {subsection}{Simulaci\IeC {\'o}n}{8}{section*.5}}
\@writefile{toc}{\contentsline {section}{\numberline {2.4}Segunda Etapa (Integrador)}{9}{section.2.4}}
\@writefile{toc}{\contentsline {subsection}{Circuito}{9}{section*.6}}
\@writefile{toc}{\contentsline {subsection}{C\IeC {\'a}lculos}{9}{section*.7}}
\@writefile{toc}{\contentsline {subsection}{Simulaci\IeC {\'o}n}{12}{section*.8}}
\@writefile{toc}{\contentsline {section}{\numberline {2.5}Tercera Etapa (Derivador)}{12}{section.2.5}}
\@writefile{toc}{\contentsline {subsection}{Circuito}{12}{section*.9}}
\@writefile{toc}{\contentsline {subsection}{C\IeC {\'a}lculos}{13}{section*.10}}
\@writefile{toc}{\contentsline {subsection}{Simulaci\IeC {\'o}n}{15}{section*.11}}
\@writefile{toc}{\contentsline {section}{\numberline {2.6}Cuarta Etapa (Derivador y Rectificador)}{15}{section.2.6}}
\@writefile{toc}{\contentsline {subsection}{Circuito}{15}{section*.12}}
\@writefile{toc}{\contentsline {subsection}{C\IeC {\'a}lculos}{15}{section*.13}}
\@writefile{toc}{\contentsline {subsection}{Impedancia de Salida}{16}{section*.14}}
\@writefile{toc}{\contentsline {subsection}{Simulaci\IeC {\'o}n}{17}{section*.15}}
\@writefile{toc}{\contentsline {chapter}{\numberline {3}Conclusiones}{18}{chapter.3}}
\@writefile{lof}{\addvspace {10\p@ }}
\@writefile{lot}{\addvspace {10\p@ }}
\@writefile{toc}{\contentsline {section}{\numberline {3.1}TL07(2/4)}{18}{section.3.1}}
\@writefile{toc}{\contentsline {section}{\numberline {3.2}TL431}{19}{section.3.2}}
\@writefile{toc}{\contentsline {section}{\numberline {3.3}Observaciones y Conclusion}{21}{section.3.3}}
