\relax 
\providecommand\hyper@newdestlabel[2]{}
\catcode `"\active 
\catcode `<\active 
\catcode `>\active 
\@nameuse{es@quoting}
\catcode `'\active 
\providecommand\HyperFirstAtBeginDocument{\AtBeginDocument}
\HyperFirstAtBeginDocument{\ifx\hyper@anchor\@undefined
\global\let\oldcontentsline\contentsline
\gdef\contentsline#1#2#3#4{\oldcontentsline{#1}{#2}{#3}}
\global\let\oldnewlabel\newlabel
\gdef\newlabel#1#2{\newlabelxx{#1}#2}
\gdef\newlabelxx#1#2#3#4#5#6{\oldnewlabel{#1}{{#2}{#3}}}
\AtEndDocument{\ifx\hyper@anchor\@undefined
\let\contentsline\oldcontentsline
\let\newlabel\oldnewlabel
\fi}
\fi}
\global\let\hyper@last\relax 
\gdef\HyperFirstAtBeginDocument#1{#1}
\providecommand\HyField@AuxAddToFields[1]{}
\providecommand\HyField@AuxAddToCoFields[2]{}
\providecommand \oddpage@label [2]{}
\babel@aux{spanish}{}
\@writefile{toc}{\contentsline {chapter}{\numberline {1}Amplificadores Realimentados}{3}{chapter.1}}
\@writefile{lof}{\addvspace {10\p@ }}
\@writefile{lot}{\addvspace {10\p@ }}
\@writefile{toc}{\contentsline {section}{\numberline {1.1}Tipos de amplificadores}{3}{section.1.1}}
\@writefile{toc}{\contentsline {subsection}{Amplificador de Tension no realimentado}{3}{section*.9}}
\@writefile{toc}{\contentsline {subsection}{Amplificador de Corriente no realimentado}{3}{section*.10}}
\@writefile{toc}{\contentsline {subsection}{Amplificador de Transconductancia no realimentado}{4}{section*.11}}
\@writefile{toc}{\contentsline {subsection}{Amplificador de Transresistencia no realimentado}{4}{section*.12}}
\@writefile{toc}{\contentsline {subsection}{Comparaci\IeC {\'o}n de amplificadores}{4}{section*.13}}
\@writefile{toc}{\contentsline {section}{\numberline {1.2}El amplificador realimentado}{4}{section.1.2}}
\@writefile{toc}{\contentsline {section}{\numberline {1.3}Ganancia y De-sensibilidad}{5}{section.1.3}}
\@writefile{toc}{\contentsline {subsection}{Desarrollo por relaci\IeC {\'o}n entre salida y entrada}{5}{section*.14}}
\@writefile{toc}{\contentsline {subsection}{Desarrollo por relaci\IeC {\'o}n de derivadas}{5}{section*.15}}
\@writefile{toc}{\contentsline {section}{\numberline {1.4}Tipos de Realimentaci\IeC {\'o}n}{6}{section.1.4}}
\@writefile{toc}{\contentsline {section}{\numberline {1.5}An\IeC {\'a}lisis de amplificadores realimentados}{6}{section.1.5}}
\@writefile{toc}{\contentsline {subsection}{Amplificador Tension realimentado en serie}{6}{section*.16}}
\@writefile{toc}{\contentsline {subsection}{Amplificador de Corriente realimentado en serie}{7}{section*.17}}
\@writefile{toc}{\contentsline {subsection}{Amplificador de Corriente realimentado en paralelo}{8}{section*.18}}
