\BOOKMARK [0][-]{chapter.1}{Introducci\363n}{}% 1
\BOOKMARK [0][-]{chapter.2}{Desarrollo}{}% 2
\BOOKMARK [1][-]{section.2.1}{Circuito Acondicionador de Se\361al}{chapter.2}% 3
\BOOKMARK [1][-]{section.2.2}{C\341lculo de elementos del circuito}{chapter.2}% 4
\BOOKMARK [2][-]{section*.4}{Primer amplificador operacional}{section.2.2}% 5
\BOOKMARK [2][-]{section*.5}{Segundo amplificador operacional}{section.2.2}% 6
\BOOKMARK [0][-]{chapter.3}{Conclusion}{}% 7
