\babel@toc {spanish}{}
\contentsline {chapter}{\numberline {1}Introducci\IeC {\'o}n}{1}{chapter.1}
\contentsline {chapter}{\numberline {2}Desarrollo}{2}{chapter.2}
\contentsline {section}{\numberline {2.1}Circuito Acondicionador de Se\IeC {\~n}al}{2}{section.2.1}
\contentsline {section}{\numberline {2.2}C\IeC {\'a}lculo de elementos del circuito}{2}{section.2.2}
\contentsline {subsection}{Primer amplificador operacional}{3}{section*.4}
\contentsline {subsection}{Segundo amplificador operacional}{3}{section*.5}
\contentsline {chapter}{\numberline {3}Conclusion}{6}{chapter.3}
