\relax 
\providecommand\hyper@newdestlabel[2]{}
\catcode `"\active 
\catcode `<\active 
\catcode `>\active 
\@nameuse{es@quoting}
\catcode `'\active 
\providecommand\HyperFirstAtBeginDocument{\AtBeginDocument}
\HyperFirstAtBeginDocument{\ifx\hyper@anchor\@undefined
\global\let\oldcontentsline\contentsline
\gdef\contentsline#1#2#3#4{\oldcontentsline{#1}{#2}{#3}}
\global\let\oldnewlabel\newlabel
\gdef\newlabel#1#2{\newlabelxx{#1}#2}
\gdef\newlabelxx#1#2#3#4#5#6{\oldnewlabel{#1}{{#2}{#3}}}
\AtEndDocument{\ifx\hyper@anchor\@undefined
\let\contentsline\oldcontentsline
\let\newlabel\oldnewlabel
\fi}
\fi}
\global\let\hyper@last\relax 
\gdef\HyperFirstAtBeginDocument#1{#1}
\providecommand\HyField@AuxAddToFields[1]{}
\providecommand\HyField@AuxAddToCoFields[2]{}
\providecommand \oddpage@label [2]{}
\babel@aux{spanish}{}
\@writefile{toc}{\contentsline {chapter}{\numberline {1}Introducci\IeC {\'o}n}{1}{chapter.1}}
\@writefile{lof}{\addvspace {10\p@ }}
\@writefile{lot}{\addvspace {10\p@ }}
\@writefile{toc}{\contentsline {chapter}{\numberline {2}Desarrollo}{2}{chapter.2}}
\@writefile{lof}{\addvspace {10\p@ }}
\@writefile{lot}{\addvspace {10\p@ }}
\@writefile{toc}{\contentsline {section}{\numberline {2.1}Circuito Acondicionador de Se\IeC {\~n}al}{2}{section.2.1}}
\@writefile{lof}{\contentsline {figure}{\numberline {2.1}{\ignorespaces Diagrama en bloques de sistema con CAS\relax }}{2}{figure.caption.2}}
\providecommand*\caption@xref[2]{\@setref\relax\@undefined{#1}}
\newlabel{fig:bloquesCAS}{{2.1}{2}{Diagrama en bloques de sistema con CAS\relax }{figure.caption.2}{}}
\@writefile{toc}{\contentsline {section}{\numberline {2.2}C\IeC {\'a}lculo de elementos del circuito}{2}{section.2.2}}
\@writefile{lof}{\contentsline {figure}{\numberline {2.2}{\ignorespaces Circuito del sensor de temperatura\relax }}{3}{figure.caption.3}}
\newlabel{fig:circSensor}{{2.2}{3}{Circuito del sensor de temperatura\relax }{figure.caption.3}{}}
\@writefile{toc}{\contentsline {subsection}{Primer amplificador operacional}{3}{section*.4}}
\@writefile{toc}{\contentsline {subsection}{Segundo amplificador operacional}{3}{section*.5}}
\@writefile{lof}{\contentsline {figure}{\numberline {2.3}{\ignorespaces Simulaci\IeC {\'o}n para $T_0=0^\circ C$\relax }}{4}{figure.caption.6}}
\newlabel{fig:cero}{{2.3}{4}{Simulación para $T_0=0^\circ C$\relax }{figure.caption.6}{}}
\@writefile{lof}{\contentsline {figure}{\numberline {2.4}{\ignorespaces Simulaci\IeC {\'o}n para $T_1=25^\circ C$\relax }}{5}{figure.caption.7}}
\newlabel{fig:veinticinco}{{2.4}{5}{Simulación para $T_1=25^\circ C$\relax }{figure.caption.7}{}}
\@writefile{lof}{\contentsline {figure}{\numberline {2.5}{\ignorespaces Simulaci\IeC {\'o}n para $T_2=50^\circ C$\relax }}{5}{figure.caption.8}}
\newlabel{fig:cincuenta}{{2.5}{5}{Simulación para $T_2=50^\circ C$\relax }{figure.caption.8}{}}
\@writefile{toc}{\contentsline {chapter}{\numberline {3}Conclusion}{6}{chapter.3}}
\@writefile{lof}{\addvspace {10\p@ }}
\@writefile{lot}{\addvspace {10\p@ }}
